[
    {
        "thumbnail": "images/job/company-logo-1.png",
        "title": "Designer Required",
        "employer": "Theoreo",
        "locate": "New York City",
        "type": "Full Time",
        "deadline": "Deadline: Oct 31, 2018"
    },
    {
        "thumbnail": "images/job/company-logo-2.png",
        "title": "Project Manager",
        "employer": "Degoin",
        "locate": "San Francisco",
        "type": "Part Time",
        "deadline": "Deadline: Oct 31, 2018"
    },
    {
        "thumbnail": "images/job/company-logo-8.png",
        "title": "Restaurant Team Member - Crew",
        "employer": "Geologitic",
        "locate": "New Orleans",
        "type": "Temporary",
        "deadline": "Deadline: Oct 31, 2018"
    },
    {
        "thumbnail": "images/job/company-logo-9.png",
        "title": "Nutrition Advisor",
        "employer": "Theoreo",
        "locate": "New York City",
        "type": "Full Time",
        "deadline": "Deadline: Oct 31, 2018"
    },
    {
        "thumbnail": "images/job/company-logo-10.png",
        "title": "UI Designer",
        "employer": "Degoin",
        "locate": "San Francisco",
        "type": "Part Time",
        "deadline": "Deadline: Oct 31, 2018"
    },
    {
        "thumbnail": "images/job/company-logo-3.png",
        "title": "Land Development Marketer",
        "employer": "Realouse",
        "locate": "Washington, D.C.",
        "type": "Freelance",
        "deadline": "Deadline: Oct 31, 2018"
    }
]